('C:\\Repositories\\PiHome\\dist\\PiHome.exe',
 True,
 False,
 False,
 None,
 None,
 False,
 False,
 '<?xml version="1.0" encoding="UTF-8" standalone="yes"?><assembly manifestVersion="1.0" xmlns="urn:schemas-microsoft-com:asm.v1"><assemblyIdentity name="PiHome" processorArchitecture="x86" type="win32" version="1.0.0.0"/><dependency><dependentAssembly><assemblyIdentity language="*" name="Microsoft.Windows.Common-Controls" processorArchitecture="*" publicKeyToken="6595b64144ccf1df" type="win32" version="6.0.0.0"/><compatibility xmlns="urn:schemas-microsoft-com:compatibility.v1"/></dependentAssembly></dependency><compatibility xmlns="urn:schemas-microsoft-com:compatibility.v1"><application><supportedOS Id="{e2011457-1546-43c5-a5fe-008deee3d3f0}"/><supportedOS Id="{35138b9a-5d96-4fbd-8e2d-a2440225f93a}"/><supportedOS Id="{4a2f28e3-53b9-4441-ba9c-d69d4a4a6e38}"/><supportedOS Id="{1f676c76-80e1-4239-95bb-83d0f6d0da78}"/><supportedOS Id="{8e0f7a12-bfb3-4fe8-b9a5-48fd50a15a9a}"/></application></compatibility></assembly>',
 True,
 'PiHome.pkg',
 [('PYZ-00.pyz', 'C:\\Repositories\\PiHome\\build\\PiHome\\PYZ-00.pyz', 'PYZ'),
  ('struct',
   'c:\\users\\bradl_x1hnbb2\\appdata\\local\\programs\\python\\python37-32\\lib\\struct.pyo',
   'PYMODULE'),
  ('pyimod01_os_path',
   'c:\\users\\bradl_x1hnbb2\\appdata\\local\\programs\\python\\python37-32\\lib\\site-packages\\PyInstaller\\loader\\pyimod01_os_path.pyc',
   'PYMODULE'),
  ('pyimod02_archive',
   'c:\\users\\bradl_x1hnbb2\\appdata\\local\\programs\\python\\python37-32\\lib\\site-packages\\PyInstaller\\loader\\pyimod02_archive.pyc',
   'PYMODULE'),
  ('pyimod03_importers',
   'c:\\users\\bradl_x1hnbb2\\appdata\\local\\programs\\python\\python37-32\\lib\\site-packages\\PyInstaller\\loader\\pyimod03_importers.pyc',
   'PYMODULE'),
  ('pyiboot01_bootstrap',
   'c:\\users\\bradl_x1hnbb2\\appdata\\local\\programs\\python\\python37-32\\lib\\site-packages\\PyInstaller\\loader\\pyiboot01_bootstrap.py',
   'PYSOURCE'),
  ('pyi_rth_multiprocessing',
   'c:\\users\\bradl_x1hnbb2\\appdata\\local\\programs\\python\\python37-32\\lib\\site-packages\\PyInstaller\\loader\\rthooks\\pyi_rth_multiprocessing.py',
   'PYSOURCE'),
  ('pyi_rth_kivy',
   'c:\\users\\bradl_x1hnbb2\\appdata\\local\\programs\\python\\python37-32\\lib\\site-packages\\PyInstaller\\loader\\rthooks\\pyi_rth_kivy.py',
   'PYSOURCE'),
  ('pyi_rth_gstreamer',
   'c:\\users\\bradl_x1hnbb2\\appdata\\local\\programs\\python\\python37-32\\lib\\site-packages\\PyInstaller\\loader\\rthooks\\pyi_rth_gstreamer.py',
   'PYSOURCE'),
  ('pyi_rth_pkgres',
   'c:\\users\\bradl_x1hnbb2\\appdata\\local\\programs\\python\\python37-32\\lib\\site-packages\\PyInstaller\\loader\\rthooks\\pyi_rth_pkgres.py',
   'PYSOURCE'),
  ('pyi_rth_win32comgenpy',
   'c:\\users\\bradl_x1hnbb2\\appdata\\local\\programs\\python\\python37-32\\lib\\site-packages\\PyInstaller\\loader\\rthooks\\pyi_rth_win32comgenpy.py',
   'PYSOURCE'),
  ('__main__', 'C:\\Repositories\\PiHome\\PiHome\\__main__.py', 'PYSOURCE'),
  ('python37.dll',
   'c:\\users\\bradl_x1hnbb2\\appdata\\local\\programs\\python\\python37-32\\python37.dll',
   'BINARY'),
  ('VCRUNTIME140.dll',
   'c:\\users\\bradl_x1hnbb2\\appdata\\local\\programs\\python\\python37-32\\VCRUNTIME140.dll',
   'BINARY'),
  ('pythoncom37.dll',
   'c:\\users\\bradl_x1hnbb2\\appdata\\local\\programs\\python\\python37-32\\lib\\site-packages\\pywin32_system32\\pythoncom37.dll',
   'BINARY'),
  ('pywintypes37.dll',
   'c:\\users\\bradl_x1hnbb2\\appdata\\local\\programs\\python\\python37-32\\lib\\site-packages\\pywin32_system32\\pywintypes37.dll',
   'BINARY'),
  ('win32trace',
   'c:\\users\\bradl_x1hnbb2\\appdata\\local\\programs\\python\\python37-32\\lib\\site-packages\\win32\\win32trace.pyd',
   'EXTENSION'),
  ('win32ui',
   'c:\\users\\bradl_x1hnbb2\\appdata\\local\\programs\\python\\python37-32\\lib\\site-packages\\Pythonwin\\win32ui.pyd',
   'EXTENSION'),
  ('_win32sysloader',
   'c:\\users\\bradl_x1hnbb2\\appdata\\local\\programs\\python\\python37-32\\lib\\site-packages\\win32\\_win32sysloader.pyd',
   'EXTENSION'),
  ('win32api',
   'c:\\users\\bradl_x1hnbb2\\appdata\\local\\programs\\python\\python37-32\\lib\\site-packages\\win32\\win32api.pyd',
   'EXTENSION'),
  ('_ctypes',
   'c:\\users\\bradl_x1hnbb2\\appdata\\local\\programs\\python\\python37-32\\DLLs\\_ctypes.pyd',
   'EXTENSION'),
  ('win32com.shell.shell',
   'c:\\users\\bradl_x1hnbb2\\appdata\\local\\programs\\python\\python37-32\\lib\\site-packages\\win32comext\\shell\\shell.pyd',
   'EXTENSION'),
  ('win32wnet',
   'c:\\users\\bradl_x1hnbb2\\appdata\\local\\programs\\python\\python37-32\\lib\\site-packages\\win32\\win32wnet.pyd',
   'EXTENSION'),
  ('_elementtree',
   'c:\\users\\bradl_x1hnbb2\\appdata\\local\\programs\\python\\python37-32\\DLLs\\_elementtree.pyd',
   'EXTENSION'),
  ('_contextvars',
   'c:\\users\\bradl_x1hnbb2\\appdata\\local\\programs\\python\\python37-32\\DLLs\\_contextvars.pyd',
   'EXTENSION'),
  ('_decimal',
   'c:\\users\\bradl_x1hnbb2\\appdata\\local\\programs\\python\\python37-32\\DLLs\\_decimal.pyd',
   'EXTENSION'),
  ('_queue',
   'c:\\users\\bradl_x1hnbb2\\appdata\\local\\programs\\python\\python37-32\\DLLs\\_queue.pyd',
   'EXTENSION'),
  ('_multiprocessing',
   'c:\\users\\bradl_x1hnbb2\\appdata\\local\\programs\\python\\python37-32\\DLLs\\_multiprocessing.pyd',
   'EXTENSION'),
  ('_ssl',
   'c:\\users\\bradl_x1hnbb2\\appdata\\local\\programs\\python\\python37-32\\DLLs\\_ssl.pyd',
   'EXTENSION'),
  ('unicodedata',
   'c:\\users\\bradl_x1hnbb2\\appdata\\local\\programs\\python\\python37-32\\DLLs\\unicodedata.pyd',
   'EXTENSION'),
  ('pyexpat',
   'c:\\users\\bradl_x1hnbb2\\appdata\\local\\programs\\python\\python37-32\\DLLs\\pyexpat.pyd',
   'EXTENSION'),
  ('_hashlib',
   'c:\\users\\bradl_x1hnbb2\\appdata\\local\\programs\\python\\python37-32\\DLLs\\_hashlib.pyd',
   'EXTENSION'),
  ('_bz2',
   'c:\\users\\bradl_x1hnbb2\\appdata\\local\\programs\\python\\python37-32\\DLLs\\_bz2.pyd',
   'EXTENSION'),
  ('_lzma',
   'c:\\users\\bradl_x1hnbb2\\appdata\\local\\programs\\python\\python37-32\\DLLs\\_lzma.pyd',
   'EXTENSION'),
  ('_socket',
   'c:\\users\\bradl_x1hnbb2\\appdata\\local\\programs\\python\\python37-32\\DLLs\\_socket.pyd',
   'EXTENSION'),
  ('select',
   'c:\\users\\bradl_x1hnbb2\\appdata\\local\\programs\\python\\python37-32\\DLLs\\select.pyd',
   'EXTENSION'),
  ('kivy.graphics.scissor_instructions',
   'c:\\users\\bradl_x1hnbb2\\appdata\\local\\programs\\python\\python37-32\\lib\\site-packages\\kivy\\graphics\\scissor_instructions.cp37-win32.pyd',
   'EXTENSION'),
  ('kivy.graphics.fbo',
   'c:\\users\\bradl_x1hnbb2\\appdata\\local\\programs\\python\\python37-32\\lib\\site-packages\\kivy\\graphics\\fbo.cp37-win32.pyd',
   'EXTENSION'),
  ('kivy.graphics.gl_instructions',
   'c:\\users\\bradl_x1hnbb2\\appdata\\local\\programs\\python\\python37-32\\lib\\site-packages\\kivy\\graphics\\gl_instructions.cp37-win32.pyd',
   'EXTENSION'),
  ('kivy.graphics.stencil_instructions',
   'c:\\users\\bradl_x1hnbb2\\appdata\\local\\programs\\python\\python37-32\\lib\\site-packages\\kivy\\graphics\\stencil_instructions.cp37-win32.pyd',
   'EXTENSION'),
  ('kivy.graphics.vertex_instructions',
   'c:\\users\\bradl_x1hnbb2\\appdata\\local\\programs\\python\\python37-32\\lib\\site-packages\\kivy\\graphics\\vertex_instructions.cp37-win32.pyd',
   'EXTENSION'),
  ('kivy.graphics.context_instructions',
   'c:\\users\\bradl_x1hnbb2\\appdata\\local\\programs\\python\\python37-32\\lib\\site-packages\\kivy\\graphics\\context_instructions.cp37-win32.pyd',
   'EXTENSION'),
  ('kivy.graphics.instructions',
   'c:\\users\\bradl_x1hnbb2\\appdata\\local\\programs\\python\\python37-32\\lib\\site-packages\\kivy\\graphics\\instructions.cp37-win32.pyd',
   'EXTENSION'),
  ('kivy._clock',
   'c:\\users\\bradl_x1hnbb2\\appdata\\local\\programs\\python\\python37-32\\lib\\site-packages\\kivy\\_clock.cp37-win32.pyd',
   'EXTENSION'),
  ('kivy.core.text.text_layout',
   'c:\\users\\bradl_x1hnbb2\\appdata\\local\\programs\\python\\python37-32\\lib\\site-packages\\kivy\\core\\text\\text_layout.cp37-win32.pyd',
   'EXTENSION'),
  ('kivy.graphics.context',
   'c:\\users\\bradl_x1hnbb2\\appdata\\local\\programs\\python\\python37-32\\lib\\site-packages\\kivy\\graphics\\context.cp37-win32.pyd',
   'EXTENSION'),
  ('kivy.graphics.transformation',
   'c:\\users\\bradl_x1hnbb2\\appdata\\local\\programs\\python\\python37-32\\lib\\site-packages\\kivy\\graphics\\transformation.cp37-win32.pyd',
   'EXTENSION'),
  ('kivy.graphics.texture',
   'c:\\users\\bradl_x1hnbb2\\appdata\\local\\programs\\python\\python37-32\\lib\\site-packages\\kivy\\graphics\\texture.cp37-win32.pyd',
   'EXTENSION'),
  ('win32file',
   'c:\\users\\bradl_x1hnbb2\\appdata\\local\\programs\\python\\python37-32\\lib\\site-packages\\win32\\win32file.pyd',
   'EXTENSION'),
  ('kivy.weakproxy',
   'c:\\users\\bradl_x1hnbb2\\appdata\\local\\programs\\python\\python37-32\\lib\\site-packages\\kivy\\weakproxy.cp37-win32.pyd',
   'EXTENSION'),
  ('kivy.graphics.opengl',
   'c:\\users\\bradl_x1hnbb2\\appdata\\local\\programs\\python\\python37-32\\lib\\site-packages\\kivy\\graphics\\opengl.cp37-win32.pyd',
   'EXTENSION'),
  ('kivy.graphics.cgl',
   'c:\\users\\bradl_x1hnbb2\\appdata\\local\\programs\\python\\python37-32\\lib\\site-packages\\kivy\\graphics\\cgl.cp37-win32.pyd',
   'EXTENSION'),
  ('kivy.graphics.opengl_utils',
   'c:\\users\\bradl_x1hnbb2\\appdata\\local\\programs\\python\\python37-32\\lib\\site-packages\\kivy\\graphics\\opengl_utils.cp37-win32.pyd',
   'EXTENSION'),
  ('kivy.properties',
   'c:\\users\\bradl_x1hnbb2\\appdata\\local\\programs\\python\\python37-32\\lib\\site-packages\\kivy\\properties.cp37-win32.pyd',
   'EXTENSION'),
  ('kivy._event',
   'c:\\users\\bradl_x1hnbb2\\appdata\\local\\programs\\python\\python37-32\\lib\\site-packages\\kivy\\_event.cp37-win32.pyd',
   'EXTENSION'),
  ('kivy.lib.gstplayer._gstplayer',
   'c:\\users\\bradl_x1hnbb2\\appdata\\local\\programs\\python\\python37-32\\lib\\site-packages\\kivy\\lib\\gstplayer\\_gstplayer.cp37-win32.pyd',
   'EXTENSION'),
  ('kivy.graphics.vbo',
   'c:\\users\\bradl_x1hnbb2\\appdata\\local\\programs\\python\\python37-32\\lib\\site-packages\\kivy\\graphics\\vbo.cp37-win32.pyd',
   'EXTENSION'),
  ('kivy.graphics.cgl_backend.cgl_gl',
   'c:\\users\\bradl_x1hnbb2\\appdata\\local\\programs\\python\\python37-32\\lib\\site-packages\\kivy\\graphics\\cgl_backend\\cgl_gl.cp37-win32.pyd',
   'EXTENSION'),
  ('kivy.core.text._text_sdl2',
   'c:\\users\\bradl_x1hnbb2\\appdata\\local\\programs\\python\\python37-32\\lib\\site-packages\\kivy\\core\\text\\_text_sdl2.cp37-win32.pyd',
   'EXTENSION'),
  ('kivy.graphics.buffer',
   'c:\\users\\bradl_x1hnbb2\\appdata\\local\\programs\\python\\python37-32\\lib\\site-packages\\kivy\\graphics\\buffer.cp37-win32.pyd',
   'EXTENSION'),
  ('kivy.core.window._window_sdl2',
   'c:\\users\\bradl_x1hnbb2\\appdata\\local\\programs\\python\\python37-32\\lib\\site-packages\\kivy\\core\\window\\_window_sdl2.cp37-win32.pyd',
   'EXTENSION'),
  ('kivy.core.audio.audio_sdl2',
   'c:\\users\\bradl_x1hnbb2\\appdata\\local\\programs\\python\\python37-32\\lib\\site-packages\\kivy\\core\\audio\\audio_sdl2.cp37-win32.pyd',
   'EXTENSION'),
  ('kivy.core.window.window_info',
   'c:\\users\\bradl_x1hnbb2\\appdata\\local\\programs\\python\\python37-32\\lib\\site-packages\\kivy\\core\\window\\window_info.cp37-win32.pyd',
   'EXTENSION'),
  ('kivy.core.clipboard._clipboard_sdl2',
   'c:\\users\\bradl_x1hnbb2\\appdata\\local\\programs\\python\\python37-32\\lib\\site-packages\\kivy\\core\\clipboard\\_clipboard_sdl2.cp37-win32.pyd',
   'EXTENSION'),
  ('kivy.graphics.compiler',
   'c:\\users\\bradl_x1hnbb2\\appdata\\local\\programs\\python\\python37-32\\lib\\site-packages\\kivy\\graphics\\compiler.cp37-win32.pyd',
   'EXTENSION'),
  ('kivy.graphics.tesselator',
   'c:\\users\\bradl_x1hnbb2\\appdata\\local\\programs\\python\\python37-32\\lib\\site-packages\\kivy\\graphics\\tesselator.cp37-win32.pyd',
   'EXTENSION'),
  ('kivy.graphics.vertex',
   'c:\\users\\bradl_x1hnbb2\\appdata\\local\\programs\\python\\python37-32\\lib\\site-packages\\kivy\\graphics\\vertex.cp37-win32.pyd',
   'EXTENSION'),
  ('win32gui',
   'c:\\users\\bradl_x1hnbb2\\appdata\\local\\programs\\python\\python37-32\\lib\\site-packages\\win32\\win32gui.pyd',
   'EXTENSION'),
  ('kivy.graphics.shader',
   'c:\\users\\bradl_x1hnbb2\\appdata\\local\\programs\\python\\python37-32\\lib\\site-packages\\kivy\\graphics\\shader.cp37-win32.pyd',
   'EXTENSION'),
  ('kivy.graphics.svg',
   'c:\\users\\bradl_x1hnbb2\\appdata\\local\\programs\\python\\python37-32\\lib\\site-packages\\kivy\\graphics\\svg.cp37-win32.pyd',
   'EXTENSION'),
  ('kivy.graphics.cgl_backend.cgl_mock',
   'c:\\users\\bradl_x1hnbb2\\appdata\\local\\programs\\python\\python37-32\\lib\\site-packages\\kivy\\graphics\\cgl_backend\\cgl_mock.cp37-win32.pyd',
   'EXTENSION'),
  ('kivy.graphics.cgl_backend.cgl_glew',
   'c:\\users\\bradl_x1hnbb2\\appdata\\local\\programs\\python\\python37-32\\lib\\site-packages\\kivy\\graphics\\cgl_backend\\cgl_glew.cp37-win32.pyd',
   'EXTENSION'),
  ('kivy.core.image._img_sdl2',
   'c:\\users\\bradl_x1hnbb2\\appdata\\local\\programs\\python\\python37-32\\lib\\site-packages\\kivy\\core\\image\\_img_sdl2.cp37-win32.pyd',
   'EXTENSION'),
  ('kivy.graphics.cgl_backend.cgl_debug',
   'c:\\users\\bradl_x1hnbb2\\appdata\\local\\programs\\python\\python37-32\\lib\\site-packages\\kivy\\graphics\\cgl_backend\\cgl_debug.cp37-win32.pyd',
   'EXTENSION'),
  ('kivy.graphics.cgl_backend.cgl_sdl2',
   'c:\\users\\bradl_x1hnbb2\\appdata\\local\\programs\\python\\python37-32\\lib\\site-packages\\kivy\\graphics\\cgl_backend\\cgl_sdl2.cp37-win32.pyd',
   'EXTENSION'),
  ('mfc140u.dll',
   'c:\\users\\bradl_x1hnbb2\\appdata\\local\\programs\\python\\python37-32\\lib\\site-packages\\Pythonwin\\mfc140u.dll',
   'BINARY'),
  ('libssl-1_1.dll',
   'c:\\users\\bradl_x1hnbb2\\appdata\\local\\programs\\python\\python37-32\\DLLs\\libssl-1_1.dll',
   'BINARY'),
  ('libcrypto-1_1.dll',
   'c:\\users\\bradl_x1hnbb2\\appdata\\local\\programs\\python\\python37-32\\DLLs\\libcrypto-1_1.dll',
   'BINARY'),
  ('libgstreamer-1.0-0.dll',
   'c:\\users\\bradl_x1hnbb2\\appdata\\local\\programs\\python\\python37-32\\share\\gstreamer\\bin\\libgstreamer-1.0-0.dll',
   'BINARY'),
  ('libglib-2.0-0.dll',
   'c:\\users\\bradl_x1hnbb2\\appdata\\local\\programs\\python\\python37-32\\share\\gstreamer\\bin\\libglib-2.0-0.dll',
   'BINARY'),
  ('libgobject-2.0-0.dll',
   'c:\\users\\bradl_x1hnbb2\\appdata\\local\\programs\\python\\python37-32\\share\\gstreamer\\bin\\libgobject-2.0-0.dll',
   'BINARY'),
  ('glew32.dll',
   'c:\\users\\bradl_x1hnbb2\\appdata\\local\\programs\\python\\python37-32\\share\\glew\\bin\\glew32.dll',
   'BINARY'),
  ('SDL2_ttf.dll',
   'c:\\users\\bradl_x1hnbb2\\appdata\\local\\programs\\python\\python37-32\\share\\sdl2\\bin\\sdl2_ttf.dll',
   'BINARY'),
  ('SDL2.dll',
   'c:\\users\\bradl_x1hnbb2\\appdata\\local\\programs\\python\\python37-32\\share\\sdl2\\bin\\sdl2.dll',
   'BINARY'),
  ('SDL2_image.dll',
   'c:\\users\\bradl_x1hnbb2\\appdata\\local\\programs\\python\\python37-32\\share\\sdl2\\bin\\sdl2_image.dll',
   'BINARY'),
  ('SDL2_mixer.dll',
   'c:\\users\\bradl_x1hnbb2\\appdata\\local\\programs\\python\\python37-32\\share\\sdl2\\bin\\sdl2_mixer.dll',
   'BINARY'),
  ('libgmodule-2.0-0.dll',
   'c:\\users\\bradl_x1hnbb2\\appdata\\local\\programs\\python\\python37-32\\share\\gstreamer\\bin\\libgmodule-2.0-0.dll',
   'BINARY'),
  ('libintl-8.dll',
   'c:\\users\\bradl_x1hnbb2\\appdata\\local\\programs\\python\\python37-32\\share\\gstreamer\\bin\\libintl-8.dll',
   'BINARY'),
  ('libwinpthread-1.dll',
   'c:\\users\\bradl_x1hnbb2\\appdata\\local\\programs\\python\\python37-32\\share\\gstreamer\\bin\\libwinpthread-1.dll',
   'BINARY'),
  ('libffi-7.dll',
   'c:\\users\\bradl_x1hnbb2\\appdata\\local\\programs\\python\\python37-32\\share\\gstreamer\\bin\\libffi-7.dll',
   'BINARY'),
  ('libfreetype-6.dll',
   'c:\\users\\bradl_x1hnbb2\\appdata\\local\\programs\\python\\python37-32\\share\\sdl2\\bin\\libfreetype-6.dll',
   'BINARY'),
  ('zlib1.dll',
   'c:\\users\\bradl_x1hnbb2\\appdata\\local\\programs\\python\\python37-32\\share\\sdl2\\bin\\zlib1.dll',
   'BINARY'),
  ('base_library.zip',
   'C:\\Repositories\\PiHome\\build\\PiHome\\base_library.zip',
   'DATA'),
  ('kivy_install\\data\\images\\image-loading.gif',
   'c:\\users\\bradl_x1hnbb2\\appdata\\local\\programs\\python\\python37-32\\lib\\site-packages\\kivy\\data\\images\\image-loading.gif',
   'DATA'),
  ('docutils\\writers\\s5_html\\themes\\README.txt',
   'c:\\users\\bradl_x1hnbb2\\appdata\\local\\programs\\python\\python37-32\\lib\\site-packages\\docutils\\writers\\s5_html\\themes\\README.txt',
   'DATA'),
  ('docutils\\parsers\\rst\\include\\isonum.txt',
   'c:\\users\\bradl_x1hnbb2\\appdata\\local\\programs\\python\\python37-32\\lib\\site-packages\\docutils\\parsers\\rst\\include\\isonum.txt',
   'DATA'),
  ('kivy_install\\data\\settings_kivy.json',
   'c:\\users\\bradl_x1hnbb2\\appdata\\local\\programs\\python\\python37-32\\lib\\site-packages\\kivy\\data\\settings_kivy.json',
   'DATA'),
  ('docutils\\writers\\s5_html\\themes\\default\\pretty.css',
   'c:\\users\\bradl_x1hnbb2\\appdata\\local\\programs\\python\\python37-32\\lib\\site-packages\\docutils\\writers\\s5_html\\themes\\default\\pretty.css',
   'DATA'),
  ('docutils\\writers\\s5_html\\themes\\big-black\\framing.css',
   'c:\\users\\bradl_x1hnbb2\\appdata\\local\\programs\\python\\python37-32\\lib\\site-packages\\docutils\\writers\\s5_html\\themes\\big-black\\framing.css',
   'DATA'),
  ('docutils\\writers\\s5_html\\themes\\small-black\\pretty.css',
   'c:\\users\\bradl_x1hnbb2\\appdata\\local\\programs\\python\\python37-32\\lib\\site-packages\\docutils\\writers\\s5_html\\themes\\small-black\\pretty.css',
   'DATA'),
  ('docutils\\parsers\\rst\\include\\isoamso.txt',
   'c:\\users\\bradl_x1hnbb2\\appdata\\local\\programs\\python\\python37-32\\lib\\site-packages\\docutils\\parsers\\rst\\include\\isoamso.txt',
   'DATA'),
  ('kivy_install\\data\\keyboards\\azerty.json',
   'c:\\users\\bradl_x1hnbb2\\appdata\\local\\programs\\python\\python37-32\\lib\\site-packages\\kivy\\data\\keyboards\\azerty.json',
   'DATA'),
  ('docutils\\writers\\pep_html\\pep.css',
   'c:\\users\\bradl_x1hnbb2\\appdata\\local\\programs\\python\\python37-32\\lib\\site-packages\\docutils\\writers\\pep_html\\pep.css',
   'DATA'),
  ('docutils\\parsers\\rst\\include\\isopub.txt',
   'c:\\users\\bradl_x1hnbb2\\appdata\\local\\programs\\python\\python37-32\\lib\\site-packages\\docutils\\parsers\\rst\\include\\isopub.txt',
   'DATA'),
  ('docutils\\writers\\s5_html\\themes\\small-black\\__base__',
   'c:\\users\\bradl_x1hnbb2\\appdata\\local\\programs\\python\\python37-32\\lib\\site-packages\\docutils\\writers\\s5_html\\themes\\small-black\\__base__',
   'DATA'),
  ('docutils\\parsers\\rst\\include\\mmlextra.txt',
   'c:\\users\\bradl_x1hnbb2\\appdata\\local\\programs\\python\\python37-32\\lib\\site-packages\\docutils\\parsers\\rst\\include\\mmlextra.txt',
   'DATA'),
  ('kivy_install\\modules\\screen.py',
   'c:\\users\\bradl_x1hnbb2\\appdata\\local\\programs\\python\\python37-32\\lib\\site-packages\\kivy\\modules\\screen.py',
   'DATA'),
  ('kivy_install\\data\\fonts\\DejaVuSans.ttf',
   'c:\\users\\bradl_x1hnbb2\\appdata\\local\\programs\\python\\python37-32\\lib\\site-packages\\kivy\\data\\fonts\\DejaVuSans.ttf',
   'DATA'),
  ('kivy_install\\modules\\console.py',
   'c:\\users\\bradl_x1hnbb2\\appdata\\local\\programs\\python\\python37-32\\lib\\site-packages\\kivy\\modules\\console.py',
   'DATA'),
  ('kivy_install\\data\\keyboards\\de.json',
   'c:\\users\\bradl_x1hnbb2\\appdata\\local\\programs\\python\\python37-32\\lib\\site-packages\\kivy\\data\\keyboards\\de.json',
   'DATA'),
  ('docutils\\parsers\\rst\\include\\xhtml1-special.txt',
   'c:\\users\\bradl_x1hnbb2\\appdata\\local\\programs\\python\\python37-32\\lib\\site-packages\\docutils\\parsers\\rst\\include\\xhtml1-special.txt',
   'DATA'),
  ('docutils\\writers\\s5_html\\themes\\default\\opera.css',
   'c:\\users\\bradl_x1hnbb2\\appdata\\local\\programs\\python\\python37-32\\lib\\site-packages\\docutils\\writers\\s5_html\\themes\\default\\opera.css',
   'DATA'),
  ('docutils\\parsers\\rst\\include\\isoamsc.txt',
   'c:\\users\\bradl_x1hnbb2\\appdata\\local\\programs\\python\\python37-32\\lib\\site-packages\\docutils\\parsers\\rst\\include\\isoamsc.txt',
   'DATA'),
  ('docutils\\parsers\\rst\\include\\s5defs.txt',
   'c:\\users\\bradl_x1hnbb2\\appdata\\local\\programs\\python\\python37-32\\lib\\site-packages\\docutils\\parsers\\rst\\include\\s5defs.txt',
   'DATA'),
  ('kivy_install\\modules\\__pycache__\\console.cpython-37.pyc',
   'c:\\users\\bradl_x1hnbb2\\appdata\\local\\programs\\python\\python37-32\\lib\\site-packages\\kivy\\modules\\__pycache__\\console.cpython-37.pyc',
   'DATA'),
  ('kivy_install\\modules\\inspector.py',
   'c:\\users\\bradl_x1hnbb2\\appdata\\local\\programs\\python\\python37-32\\lib\\site-packages\\kivy\\modules\\inspector.py',
   'DATA'),
  ('kivy_install\\data\\logo\\kivy-icon-128.png',
   'c:\\users\\bradl_x1hnbb2\\appdata\\local\\programs\\python\\python37-32\\lib\\site-packages\\kivy\\data\\logo\\kivy-icon-128.png',
   'DATA'),
  ('docutils\\writers\\s5_html\\themes\\medium-white\\framing.css',
   'c:\\users\\bradl_x1hnbb2\\appdata\\local\\programs\\python\\python37-32\\lib\\site-packages\\docutils\\writers\\s5_html\\themes\\medium-white\\framing.css',
   'DATA'),
  ('docutils\\parsers\\rst\\include\\isomfrk.txt',
   'c:\\users\\bradl_x1hnbb2\\appdata\\local\\programs\\python\\python37-32\\lib\\site-packages\\docutils\\parsers\\rst\\include\\isomfrk.txt',
   'DATA'),
  ('docutils\\parsers\\rst\\include\\README.txt',
   'c:\\users\\bradl_x1hnbb2\\appdata\\local\\programs\\python\\python37-32\\lib\\site-packages\\docutils\\parsers\\rst\\include\\README.txt',
   'DATA'),
  ('docutils\\parsers\\rst\\include\\xhtml1-symbol.txt',
   'c:\\users\\bradl_x1hnbb2\\appdata\\local\\programs\\python\\python37-32\\lib\\site-packages\\docutils\\parsers\\rst\\include\\xhtml1-symbol.txt',
   'DATA'),
  ('docutils\\writers\\s5_html\\themes\\default\\framing.css',
   'c:\\users\\bradl_x1hnbb2\\appdata\\local\\programs\\python\\python37-32\\lib\\site-packages\\docutils\\writers\\s5_html\\themes\\default\\framing.css',
   'DATA'),
  ('kivy_install\\data\\glsl\\default.png',
   'c:\\users\\bradl_x1hnbb2\\appdata\\local\\programs\\python\\python37-32\\lib\\site-packages\\kivy\\data\\glsl\\default.png',
   'DATA'),
  ('kivy_install\\data\\logo\\kivy-icon-24.png',
   'c:\\users\\bradl_x1hnbb2\\appdata\\local\\programs\\python\\python37-32\\lib\\site-packages\\kivy\\data\\logo\\kivy-icon-24.png',
   'DATA'),
  ('kivy_install\\data\\fonts\\RobotoMono-Regular.ttf',
   'c:\\users\\bradl_x1hnbb2\\appdata\\local\\programs\\python\\python37-32\\lib\\site-packages\\kivy\\data\\fonts\\RobotoMono-Regular.ttf',
   'DATA'),
  ('docutils\\writers\\html4css1\\html4css1.css',
   'c:\\users\\bradl_x1hnbb2\\appdata\\local\\programs\\python\\python37-32\\lib\\site-packages\\docutils\\writers\\html4css1\\html4css1.css',
   'DATA'),
  ('kivy_install\\modules\\monitor.py',
   'c:\\users\\bradl_x1hnbb2\\appdata\\local\\programs\\python\\python37-32\\lib\\site-packages\\kivy\\modules\\monitor.py',
   'DATA'),
  ('docutils\\parsers\\rst\\include\\isomscr.txt',
   'c:\\users\\bradl_x1hnbb2\\appdata\\local\\programs\\python\\python37-32\\lib\\site-packages\\docutils\\parsers\\rst\\include\\isomscr.txt',
   'DATA'),
  ('kivy_install\\data\\images\\testpattern.png',
   'c:\\users\\bradl_x1hnbb2\\appdata\\local\\programs\\python\\python37-32\\lib\\site-packages\\kivy\\data\\images\\testpattern.png',
   'DATA'),
  ('kivy_install\\data\\images\\cursor.png',
   'c:\\users\\bradl_x1hnbb2\\appdata\\local\\programs\\python\\python37-32\\lib\\site-packages\\kivy\\data\\images\\cursor.png',
   'DATA'),
  ('docutils\\writers\\s5_html\\themes\\default\\blank.gif',
   'c:\\users\\bradl_x1hnbb2\\appdata\\local\\programs\\python\\python37-32\\lib\\site-packages\\docutils\\writers\\s5_html\\themes\\default\\blank.gif',
   'DATA'),
  ('kivy_install\\modules\\__pycache__\\inspector.cpython-37.pyc',
   'c:\\users\\bradl_x1hnbb2\\appdata\\local\\programs\\python\\python37-32\\lib\\site-packages\\kivy\\modules\\__pycache__\\inspector.cpython-37.pyc',
   'DATA'),
  ('docutils\\writers\\s5_html\\themes\\default\\slides.js',
   'c:\\users\\bradl_x1hnbb2\\appdata\\local\\programs\\python\\python37-32\\lib\\site-packages\\docutils\\writers\\s5_html\\themes\\default\\slides.js',
   'DATA'),
  ('docutils\\writers\\s5_html\\themes\\default\\s5-core.css',
   'c:\\users\\bradl_x1hnbb2\\appdata\\local\\programs\\python\\python37-32\\lib\\site-packages\\docutils\\writers\\s5_html\\themes\\default\\s5-core.css',
   'DATA'),
  ('kivy_install\\modules\\recorder.py',
   'c:\\users\\bradl_x1hnbb2\\appdata\\local\\programs\\python\\python37-32\\lib\\site-packages\\kivy\\modules\\recorder.py',
   'DATA'),
  ('kivy_install\\modules\\__pycache__\\webdebugger.cpython-37.pyc',
   'c:\\users\\bradl_x1hnbb2\\appdata\\local\\programs\\python\\python37-32\\lib\\site-packages\\kivy\\modules\\__pycache__\\webdebugger.cpython-37.pyc',
   'DATA'),
  ('kivy_install\\modules\\__pycache__\\joycursor.cpython-37.pyc',
   'c:\\users\\bradl_x1hnbb2\\appdata\\local\\programs\\python\\python37-32\\lib\\site-packages\\kivy\\modules\\__pycache__\\joycursor.cpython-37.pyc',
   'DATA'),
  ('docutils\\parsers\\rst\\include\\isobox.txt',
   'c:\\users\\bradl_x1hnbb2\\appdata\\local\\programs\\python\\python37-32\\lib\\site-packages\\docutils\\parsers\\rst\\include\\isobox.txt',
   'DATA'),
  ('kivy_install\\data\\keyboards\\fr_CH.json',
   'c:\\users\\bradl_x1hnbb2\\appdata\\local\\programs\\python\\python37-32\\lib\\site-packages\\kivy\\data\\keyboards\\fr_CH.json',
   'DATA'),
  ('kivy_install\\modules\\__pycache__\\keybinding.cpython-37.pyc',
   'c:\\users\\bradl_x1hnbb2\\appdata\\local\\programs\\python\\python37-32\\lib\\site-packages\\kivy\\modules\\__pycache__\\keybinding.cpython-37.pyc',
   'DATA'),
  ('kivy_install\\modules\\__pycache__\\cursor.cpython-37.pyc',
   'c:\\users\\bradl_x1hnbb2\\appdata\\local\\programs\\python\\python37-32\\lib\\site-packages\\kivy\\modules\\__pycache__\\cursor.cpython-37.pyc',
   'DATA'),
  ('docutils\\writers\\s5_html\\themes\\medium-white\\pretty.css',
   'c:\\users\\bradl_x1hnbb2\\appdata\\local\\programs\\python\\python37-32\\lib\\site-packages\\docutils\\writers\\s5_html\\themes\\medium-white\\pretty.css',
   'DATA'),
  ('docutils\\parsers\\rst\\include\\isoamsa.txt',
   'c:\\users\\bradl_x1hnbb2\\appdata\\local\\programs\\python\\python37-32\\lib\\site-packages\\docutils\\parsers\\rst\\include\\isoamsa.txt',
   'DATA'),
  ('Include\\pyconfig.h',
   'c:\\users\\bradl_x1hnbb2\\appdata\\local\\programs\\python\\python37-32\\Include\\pyconfig.h',
   'DATA'),
  ('docutils\\parsers\\rst\\include\\isoamsn.txt',
   'c:\\users\\bradl_x1hnbb2\\appdata\\local\\programs\\python\\python37-32\\lib\\site-packages\\docutils\\parsers\\rst\\include\\isoamsn.txt',
   'DATA'),
  ('docutils\\parsers\\rst\\include\\mmlalias.txt',
   'c:\\users\\bradl_x1hnbb2\\appdata\\local\\programs\\python\\python37-32\\lib\\site-packages\\docutils\\parsers\\rst\\include\\mmlalias.txt',
   'DATA'),
  ('docutils\\writers\\pep_html\\template.txt',
   'c:\\users\\bradl_x1hnbb2\\appdata\\local\\programs\\python\\python37-32\\lib\\site-packages\\docutils\\writers\\pep_html\\template.txt',
   'DATA'),
  ('kivy_install\\data\\logo\\kivy-icon-256.png',
   'c:\\users\\bradl_x1hnbb2\\appdata\\local\\programs\\python\\python37-32\\lib\\site-packages\\kivy\\data\\logo\\kivy-icon-256.png',
   'DATA'),
  ('docutils\\writers\\s5_html\\themes\\big-white\\pretty.css',
   'c:\\users\\bradl_x1hnbb2\\appdata\\local\\programs\\python\\python37-32\\lib\\site-packages\\docutils\\writers\\s5_html\\themes\\big-white\\pretty.css',
   'DATA'),
  ('docutils\\writers\\html4css1\\template.txt',
   'c:\\users\\bradl_x1hnbb2\\appdata\\local\\programs\\python\\python37-32\\lib\\site-packages\\docutils\\writers\\html4css1\\template.txt',
   'DATA'),
  ('docutils\\writers\\odf_odt\\styles.odt',
   'c:\\users\\bradl_x1hnbb2\\appdata\\local\\programs\\python\\python37-32\\lib\\site-packages\\docutils\\writers\\odf_odt\\styles.odt',
   'DATA'),
  ('docutils\\writers\\s5_html\\themes\\small-white\\pretty.css',
   'c:\\users\\bradl_x1hnbb2\\appdata\\local\\programs\\python\\python37-32\\lib\\site-packages\\docutils\\writers\\s5_html\\themes\\small-white\\pretty.css',
   'DATA'),
  ('docutils\\parsers\\rst\\include\\isotech.txt',
   'c:\\users\\bradl_x1hnbb2\\appdata\\local\\programs\\python\\python37-32\\lib\\site-packages\\docutils\\parsers\\rst\\include\\isotech.txt',
   'DATA'),
  ('kivy_install\\data\\images\\defaultshape.png',
   'c:\\users\\bradl_x1hnbb2\\appdata\\local\\programs\\python\\python37-32\\lib\\site-packages\\kivy\\data\\images\\defaultshape.png',
   'DATA'),
  ('docutils\\parsers\\rst\\include\\isolat2.txt',
   'c:\\users\\bradl_x1hnbb2\\appdata\\local\\programs\\python\\python37-32\\lib\\site-packages\\docutils\\parsers\\rst\\include\\isolat2.txt',
   'DATA'),
  ('docutils\\writers\\s5_html\\themes\\default\\slides.css',
   'c:\\users\\bradl_x1hnbb2\\appdata\\local\\programs\\python\\python37-32\\lib\\site-packages\\docutils\\writers\\s5_html\\themes\\default\\slides.css',
   'DATA'),
  ('kivy_install\\modules\\__pycache__\\screen.cpython-37.pyc',
   'c:\\users\\bradl_x1hnbb2\\appdata\\local\\programs\\python\\python37-32\\lib\\site-packages\\kivy\\modules\\__pycache__\\screen.cpython-37.pyc',
   'DATA'),
  ('docutils\\parsers\\rst\\include\\isomopf.txt',
   'c:\\users\\bradl_x1hnbb2\\appdata\\local\\programs\\python\\python37-32\\lib\\site-packages\\docutils\\parsers\\rst\\include\\isomopf.txt',
   'DATA'),
  ('docutils\\parsers\\rst\\include\\isogrk1.txt',
   'c:\\users\\bradl_x1hnbb2\\appdata\\local\\programs\\python\\python37-32\\lib\\site-packages\\docutils\\parsers\\rst\\include\\isogrk1.txt',
   'DATA'),
  ('kivy_install\\data\\images\\defaulttheme.atlas',
   'c:\\users\\bradl_x1hnbb2\\appdata\\local\\programs\\python\\python37-32\\lib\\site-packages\\kivy\\data\\images\\defaulttheme.atlas',
   'DATA'),
  ('docutils\\writers\\s5_html\\themes\\big-white\\framing.css',
   'c:\\users\\bradl_x1hnbb2\\appdata\\local\\programs\\python\\python37-32\\lib\\site-packages\\docutils\\writers\\s5_html\\themes\\big-white\\framing.css',
   'DATA'),
  ('docutils\\writers\\s5_html\\themes\\big-black\\__base__',
   'c:\\users\\bradl_x1hnbb2\\appdata\\local\\programs\\python\\python37-32\\lib\\site-packages\\docutils\\writers\\s5_html\\themes\\big-black\\__base__',
   'DATA'),
  ('docutils\\parsers\\rst\\include\\isogrk4.txt',
   'c:\\users\\bradl_x1hnbb2\\appdata\\local\\programs\\python\\python37-32\\lib\\site-packages\\docutils\\parsers\\rst\\include\\isogrk4.txt',
   'DATA'),
  ('kivy_install\\modules\\keybinding.py',
   'c:\\users\\bradl_x1hnbb2\\appdata\\local\\programs\\python\\python37-32\\lib\\site-packages\\kivy\\modules\\keybinding.py',
   'DATA'),
  ('docutils\\writers\\latex2e\\titlepage.tex',
   'c:\\users\\bradl_x1hnbb2\\appdata\\local\\programs\\python\\python37-32\\lib\\site-packages\\docutils\\writers\\latex2e\\titlepage.tex',
   'DATA'),
  ('docutils\\parsers\\rst\\include\\isogrk3.txt',
   'c:\\users\\bradl_x1hnbb2\\appdata\\local\\programs\\python\\python37-32\\lib\\site-packages\\docutils\\parsers\\rst\\include\\isogrk3.txt',
   'DATA'),
  ('docutils\\parsers\\rst\\include\\isomscr-wide.txt',
   'c:\\users\\bradl_x1hnbb2\\appdata\\local\\programs\\python\\python37-32\\lib\\site-packages\\docutils\\parsers\\rst\\include\\isomscr-wide.txt',
   'DATA'),
  ('docutils\\parsers\\rst\\include\\isocyr1.txt',
   'c:\\users\\bradl_x1hnbb2\\appdata\\local\\programs\\python\\python37-32\\lib\\site-packages\\docutils\\parsers\\rst\\include\\isocyr1.txt',
   'DATA'),
  ('docutils\\parsers\\rst\\include\\isomfrk-wide.txt',
   'c:\\users\\bradl_x1hnbb2\\appdata\\local\\programs\\python\\python37-32\\lib\\site-packages\\docutils\\parsers\\rst\\include\\isomfrk-wide.txt',
   'DATA'),
  ('kivy_install\\data\\glsl\\header.vs',
   'c:\\users\\bradl_x1hnbb2\\appdata\\local\\programs\\python\\python37-32\\lib\\site-packages\\kivy\\data\\glsl\\header.vs',
   'DATA'),
  ('kivy_install\\modules\\__pycache__\\monitor.cpython-37.pyc',
   'c:\\users\\bradl_x1hnbb2\\appdata\\local\\programs\\python\\python37-32\\lib\\site-packages\\kivy\\modules\\__pycache__\\monitor.cpython-37.pyc',
   'DATA'),
  ('kivy_install\\data\\logo\\kivy-icon-64.png',
   'c:\\users\\bradl_x1hnbb2\\appdata\\local\\programs\\python\\python37-32\\lib\\site-packages\\kivy\\data\\logo\\kivy-icon-64.png',
   'DATA'),
  ('docutils\\writers\\s5_html\\themes\\big-black\\pretty.css',
   'c:\\users\\bradl_x1hnbb2\\appdata\\local\\programs\\python\\python37-32\\lib\\site-packages\\docutils\\writers\\s5_html\\themes\\big-black\\pretty.css',
   'DATA'),
  ('docutils\\parsers\\rst\\include\\isomopf-wide.txt',
   'c:\\users\\bradl_x1hnbb2\\appdata\\local\\programs\\python\\python37-32\\lib\\site-packages\\docutils\\parsers\\rst\\include\\isomopf-wide.txt',
   'DATA'),
  ('kivy_install\\data\\keyboards\\qwerty.json',
   'c:\\users\\bradl_x1hnbb2\\appdata\\local\\programs\\python\\python37-32\\lib\\site-packages\\kivy\\data\\keyboards\\qwerty.json',
   'DATA'),
  ('kivy_install\\data\\keyboards\\qwertz.json',
   'c:\\users\\bradl_x1hnbb2\\appdata\\local\\programs\\python\\python37-32\\lib\\site-packages\\kivy\\data\\keyboards\\qwertz.json',
   'DATA'),
  ('kivy_install\\modules\\__pycache__\\__init__.cpython-37.pyc',
   'c:\\users\\bradl_x1hnbb2\\appdata\\local\\programs\\python\\python37-32\\lib\\site-packages\\kivy\\modules\\__pycache__\\__init__.cpython-37.pyc',
   'DATA'),
  ('kivy_install\\modules\\__pycache__\\recorder.cpython-37.pyc',
   'c:\\users\\bradl_x1hnbb2\\appdata\\local\\programs\\python\\python37-32\\lib\\site-packages\\kivy\\modules\\__pycache__\\recorder.cpython-37.pyc',
   'DATA'),
  ('kivy_install\\data\\images\\defaulttheme-0.png',
   'c:\\users\\bradl_x1hnbb2\\appdata\\local\\programs\\python\\python37-32\\lib\\site-packages\\kivy\\data\\images\\defaulttheme-0.png',
   'DATA'),
  ('docutils\\writers\\s5_html\\themes\\default\\outline.css',
   'c:\\users\\bradl_x1hnbb2\\appdata\\local\\programs\\python\\python37-32\\lib\\site-packages\\docutils\\writers\\s5_html\\themes\\default\\outline.css',
   'DATA'),
  ('docutils\\parsers\\rst\\include\\isoamsr.txt',
   'c:\\users\\bradl_x1hnbb2\\appdata\\local\\programs\\python\\python37-32\\lib\\site-packages\\docutils\\parsers\\rst\\include\\isoamsr.txt',
   'DATA'),
  ('docutils\\parsers\\rst\\include\\isogrk2.txt',
   'c:\\users\\bradl_x1hnbb2\\appdata\\local\\programs\\python\\python37-32\\lib\\site-packages\\docutils\\parsers\\rst\\include\\isogrk2.txt',
   'DATA'),
  ('docutils\\writers\\s5_html\\themes\\default\\iepngfix.htc',
   'c:\\users\\bradl_x1hnbb2\\appdata\\local\\programs\\python\\python37-32\\lib\\site-packages\\docutils\\writers\\s5_html\\themes\\default\\iepngfix.htc',
   'DATA'),
  ('kivy_install\\data\\fonts\\Roboto-Bold.ttf',
   'c:\\users\\bradl_x1hnbb2\\appdata\\local\\programs\\python\\python37-32\\lib\\site-packages\\kivy\\data\\fonts\\Roboto-Bold.ttf',
   'DATA'),
  ('kivy_install\\data\\keyboards\\en_US.json',
   'c:\\users\\bradl_x1hnbb2\\appdata\\local\\programs\\python\\python37-32\\lib\\site-packages\\kivy\\data\\keyboards\\en_US.json',
   'DATA'),
  ('docutils\\writers\\s5_html\\themes\\default\\print.css',
   'c:\\users\\bradl_x1hnbb2\\appdata\\local\\programs\\python\\python37-32\\lib\\site-packages\\docutils\\writers\\s5_html\\themes\\default\\print.css',
   'DATA'),
  ('docutils\\parsers\\rst\\include\\isodia.txt',
   'c:\\users\\bradl_x1hnbb2\\appdata\\local\\programs\\python\\python37-32\\lib\\site-packages\\docutils\\parsers\\rst\\include\\isodia.txt',
   'DATA'),
  ('docutils\\parsers\\rst\\include\\isogrk4-wide.txt',
   'c:\\users\\bradl_x1hnbb2\\appdata\\local\\programs\\python\\python37-32\\lib\\site-packages\\docutils\\parsers\\rst\\include\\isogrk4-wide.txt',
   'DATA'),
  ('kivy_install\\modules\\touchring.py',
   'c:\\users\\bradl_x1hnbb2\\appdata\\local\\programs\\python\\python37-32\\lib\\site-packages\\kivy\\modules\\touchring.py',
   'DATA'),
  ('kivy_install\\data\\logo\\kivy-icon-32.png',
   'c:\\users\\bradl_x1hnbb2\\appdata\\local\\programs\\python\\python37-32\\lib\\site-packages\\kivy\\data\\logo\\kivy-icon-32.png',
   'DATA'),
  ('kivy_install\\data\\glsl\\header.fs',
   'c:\\users\\bradl_x1hnbb2\\appdata\\local\\programs\\python\\python37-32\\lib\\site-packages\\kivy\\data\\glsl\\header.fs',
   'DATA'),
  ('docutils\\writers\\latex2e\\default.tex',
   'c:\\users\\bradl_x1hnbb2\\appdata\\local\\programs\\python\\python37-32\\lib\\site-packages\\docutils\\writers\\latex2e\\default.tex',
   'DATA'),
  ('docutils\\writers\\html5_polyglot\\template.txt',
   'c:\\users\\bradl_x1hnbb2\\appdata\\local\\programs\\python\\python37-32\\lib\\site-packages\\docutils\\writers\\html5_polyglot\\template.txt',
   'DATA'),
  ('kivy_install\\modules\\joycursor.py',
   'c:\\users\\bradl_x1hnbb2\\appdata\\local\\programs\\python\\python37-32\\lib\\site-packages\\kivy\\modules\\joycursor.py',
   'DATA'),
  ('kivy_install\\modules\\__pycache__\\touchring.cpython-37.pyc',
   'c:\\users\\bradl_x1hnbb2\\appdata\\local\\programs\\python\\python37-32\\lib\\site-packages\\kivy\\modules\\__pycache__\\touchring.cpython-37.pyc',
   'DATA'),
  ('kivy_install\\modules\\webdebugger.py',
   'c:\\users\\bradl_x1hnbb2\\appdata\\local\\programs\\python\\python37-32\\lib\\site-packages\\kivy\\modules\\webdebugger.py',
   'DATA'),
  ('kivy_install\\data\\fonts\\Roboto-Regular.ttf',
   'c:\\users\\bradl_x1hnbb2\\appdata\\local\\programs\\python\\python37-32\\lib\\site-packages\\kivy\\data\\fonts\\Roboto-Regular.ttf',
   'DATA'),
  ('kivy_install\\data\\logo\\kivy-icon-16.png',
   'c:\\users\\bradl_x1hnbb2\\appdata\\local\\programs\\python\\python37-32\\lib\\site-packages\\kivy\\data\\logo\\kivy-icon-16.png',
   'DATA'),
  ('kivy_install\\data\\style.kv',
   'c:\\users\\bradl_x1hnbb2\\appdata\\local\\programs\\python\\python37-32\\lib\\site-packages\\kivy\\data\\style.kv',
   'DATA'),
  ('docutils\\writers\\s5_html\\themes\\medium-black\\__base__',
   'c:\\users\\bradl_x1hnbb2\\appdata\\local\\programs\\python\\python37-32\\lib\\site-packages\\docutils\\writers\\s5_html\\themes\\medium-black\\__base__',
   'DATA'),
  ('kivy_install\\data\\glsl\\default.vs',
   'c:\\users\\bradl_x1hnbb2\\appdata\\local\\programs\\python\\python37-32\\lib\\site-packages\\kivy\\data\\glsl\\default.vs',
   'DATA'),
  ('docutils\\parsers\\rst\\include\\isolat1.txt',
   'c:\\users\\bradl_x1hnbb2\\appdata\\local\\programs\\python\\python37-32\\lib\\site-packages\\docutils\\parsers\\rst\\include\\isolat1.txt',
   'DATA'),
  ('kivy_install\\modules\\cursor.py',
   'c:\\users\\bradl_x1hnbb2\\appdata\\local\\programs\\python\\python37-32\\lib\\site-packages\\kivy\\modules\\cursor.py',
   'DATA'),
  ('docutils\\parsers\\rst\\include\\isocyr2.txt',
   'c:\\users\\bradl_x1hnbb2\\appdata\\local\\programs\\python\\python37-32\\lib\\site-packages\\docutils\\parsers\\rst\\include\\isocyr2.txt',
   'DATA'),
  ('kivy_install\\data\\images\\background.jpg',
   'c:\\users\\bradl_x1hnbb2\\appdata\\local\\programs\\python\\python37-32\\lib\\site-packages\\kivy\\data\\images\\background.jpg',
   'DATA'),
  ('kivy_install\\data\\fonts\\Roboto-Italic.ttf',
   'c:\\users\\bradl_x1hnbb2\\appdata\\local\\programs\\python\\python37-32\\lib\\site-packages\\kivy\\data\\fonts\\Roboto-Italic.ttf',
   'DATA'),
  ('docutils\\writers\\latex2e\\xelatex.tex',
   'c:\\users\\bradl_x1hnbb2\\appdata\\local\\programs\\python\\python37-32\\lib\\site-packages\\docutils\\writers\\latex2e\\xelatex.tex',
   'DATA'),
  ('docutils\\writers\\s5_html\\themes\\small-white\\framing.css',
   'c:\\users\\bradl_x1hnbb2\\appdata\\local\\programs\\python\\python37-32\\lib\\site-packages\\docutils\\writers\\s5_html\\themes\\small-white\\framing.css',
   'DATA'),
  ('kivy_install\\data\\glsl\\default.fs',
   'c:\\users\\bradl_x1hnbb2\\appdata\\local\\programs\\python\\python37-32\\lib\\site-packages\\kivy\\data\\glsl\\default.fs',
   'DATA'),
  ('kivy_install\\data\\logo\\kivy-icon-512.png',
   'c:\\users\\bradl_x1hnbb2\\appdata\\local\\programs\\python\\python37-32\\lib\\site-packages\\kivy\\data\\logo\\kivy-icon-512.png',
   'DATA'),
  ('docutils\\parsers\\rst\\include\\isoamsb.txt',
   'c:\\users\\bradl_x1hnbb2\\appdata\\local\\programs\\python\\python37-32\\lib\\site-packages\\docutils\\parsers\\rst\\include\\isoamsb.txt',
   'DATA'),
  ('docutils\\parsers\\rst\\include\\xhtml1-lat1.txt',
   'c:\\users\\bradl_x1hnbb2\\appdata\\local\\programs\\python\\python37-32\\lib\\site-packages\\docutils\\parsers\\rst\\include\\xhtml1-lat1.txt',
   'DATA'),
  ('kivy_install\\modules\\__pycache__\\_webdebugger.cpython-37.pyc',
   'c:\\users\\bradl_x1hnbb2\\appdata\\local\\programs\\python\\python37-32\\lib\\site-packages\\kivy\\modules\\__pycache__\\_webdebugger.cpython-37.pyc',
   'DATA'),
  ('kivy_install\\data\\logo\\kivy-icon-48.png',
   'c:\\users\\bradl_x1hnbb2\\appdata\\local\\programs\\python\\python37-32\\lib\\site-packages\\kivy\\data\\logo\\kivy-icon-48.png',
   'DATA'),
  ('kivy_install\\modules\\__init__.py',
   'c:\\users\\bradl_x1hnbb2\\appdata\\local\\programs\\python\\python37-32\\lib\\site-packages\\kivy\\modules\\__init__.py',
   'DATA'),
  ('kivy_install\\data\\keyboards\\de_CH.json',
   'c:\\users\\bradl_x1hnbb2\\appdata\\local\\programs\\python\\python37-32\\lib\\site-packages\\kivy\\data\\keyboards\\de_CH.json',
   'DATA'),
  ('kivy_install\\modules\\_webdebugger.py',
   'c:\\users\\bradl_x1hnbb2\\appdata\\local\\programs\\python\\python37-32\\lib\\site-packages\\kivy\\modules\\_webdebugger.py',
   'DATA'),
  ('docutils\\writers\\html5_polyglot\\math.css',
   'c:\\users\\bradl_x1hnbb2\\appdata\\local\\programs\\python\\python37-32\\lib\\site-packages\\docutils\\writers\\html5_polyglot\\math.css',
   'DATA'),
  ('docutils\\writers\\html5_polyglot\\minimal.css',
   'c:\\users\\bradl_x1hnbb2\\appdata\\local\\programs\\python\\python37-32\\lib\\site-packages\\docutils\\writers\\html5_polyglot\\minimal.css',
   'DATA'),
  ('docutils\\writers\\html5_polyglot\\plain.css',
   'c:\\users\\bradl_x1hnbb2\\appdata\\local\\programs\\python\\python37-32\\lib\\site-packages\\docutils\\writers\\html5_polyglot\\plain.css',
   'DATA'),
  ('kivy_install\\data\\fonts\\Roboto-BoldItalic.ttf',
   'c:\\users\\bradl_x1hnbb2\\appdata\\local\\programs\\python\\python37-32\\lib\\site-packages\\kivy\\data\\fonts\\Roboto-BoldItalic.ttf',
   'DATA'),
  ('docutils\\writers\\s5_html\\themes\\medium-black\\pretty.css',
   'c:\\users\\bradl_x1hnbb2\\appdata\\local\\programs\\python\\python37-32\\lib\\site-packages\\docutils\\writers\\s5_html\\themes\\medium-black\\pretty.css',
   'DATA'),
  ('docutils\\parsers\\rst\\include\\mmlextra-wide.txt',
   'c:\\users\\bradl_x1hnbb2\\appdata\\local\\programs\\python\\python37-32\\lib\\site-packages\\docutils\\parsers\\rst\\include\\mmlextra-wide.txt',
   'DATA'),
  ('PiHome.exe.manifest',
   'C:\\Repositories\\PiHome\\build\\PiHome\\PiHome.exe.manifest',
   'BINARY'),
  ('pyi-windows-manifest-filename PiHome.exe.manifest', '', 'OPTION')],
 [],
 False,
 False,
 1552600633,
 [('run.exe',
   'c:\\users\\bradl_x1hnbb2\\appdata\\local\\programs\\python\\python37-32\\lib\\site-packages\\PyInstaller\\bootloader\\Windows-32bit\\run.exe',
   'EXECUTABLE')])
