('c:\\users\\bradl_x1hnbb2\\appdata\\local\\programs\\python\\python37-32\\lib\\site-packages\\pygments-2.3.1-py3.7.egg',
 None,
 {'*.pyc', 'EGG-INFO', '*.py', '*.pyd', '*.pyw', '*.cp37-win32.pyd'},
 'DATA',
 [])
